Module 1: Tabular Data
…
# See what years are available
matrix_f |> 
  distinct(year) |> 
  arrange(year) |>
  collect()

# A tibble: 28 × 1
    year
   <dbl>
 1  1995
 2  1996
 3  1997
 4  1998
 5  1999
 6  2000
 7  2001
 8  2002
 9  2003
10  2004
# ℹ 18 more rows
…
